la0_waveform.vcd
#0 $dumpon
$date today $end
$timescale 1 ns $end
$scope module top $end
$var wire 8 0 o_Rx_Byte $end
$var wire 1 1 o_Rx_DV $end
$var wire 1 2 UART_TX_INST/i_Clock $end
$var wire 8 3 UART_TX_INST/i_Tx_Byte $end
$var wire 1 4 UART_TX_INST/i_Tx_DV $end
$var wire 1 5 UART_TX_INST/o_Tx_Active $end
$var wire 1 6 UART_TX_INST/o_Tx_Done $end
$var wire 1 7 UART_TX_INST/o_Tx_Serial $end
$var wire 3 8 UART_TX_INST/r_Bit_Index $end
$var wire 8 9 UART_TX_INST/r_Clock_Count $end
$var wire 3 a UART_TX_INST/r_SM_Main $end
$var wire 1 b UART_TX_INST/r_Tx_Active $end
$var wire 8 c UART_TX_INST/r_Tx_Data $end
$var wire 1 d UART_TX_INST/r_Tx_Done $end
$var wire 1 e i_Rx_Serial $end
$var wire 1 f o_Tx_Active $end
$var wire 1 10 o_Tx_Done $end
$var wire 1 11 i_Rx_Seial $end
$var wire 1 12 o_Tx_Serial $end
$var wire 1 13 UART_RX_INST/i_Clock $end
$var wire 1 14 UART_RX_INST/i_Rx_Serial $end
$var wire 8 15 UART_RX_INST/o_Rx_Byte $end
$var wire 1 16 UART_RX_INST/o_Rx_DV $end
$var wire 3 17 UART_RX_INST/r_Bit_Index $end
$var wire 8 18 UART_RX_INST/r_Clock_Count $end
$var wire 8 19 UART_RX_INST/r_Rx_Byte $end
$var wire 1 1a UART_RX_INST/r_Rx_Data $end
$var wire 1 1b UART_RX_INST/r_Rx_Data_R $end
$var wire 1 1c UART_RX_INST/r_Rx_DV $end
$var wire 3 1d UART_RX_INST/r_SM_Main $end
$var wire 1 1e i_Clock $end
$upscope $end
$enddefinitions $end
#0
$dumpvars
b00000000 0
01
12
b00000000 3
04
05
06
17
b000 8
b00000000 9
b000 a
0b
b00000000 c
0d
0e
0f
010
011
112
113
014
b00000000 15
016
b101 17
b00001001 18
b00000000 19
01a
01b
01c
b010 1d
11e
$end
#1
b00001010 18
#2
b00001011 18
#3
b00001100 18
#4
b00001101 18
#5
b00001110 18
#6
b00001111 18
#7
b00010000 18
#8
b00010001 18
#9
b00010010 18
#10
b00010011 18
#11
b00010100 18
#12
b00010101 18
#13
b00010110 18
#14
b00010111 18
#15
b00011000 18
#16
b00011001 18
#17
b00011010 18
#18
b00011011 18
#19
b00011100 18
#20
b00011101 18
#21
b00011110 18
#22
b00011111 18
#23
b00100000 18
#24
b00100001 18
#25
b00100010 18
#26
b00100011 18
#27
b00100100 18
#28
b00100101 18
#29
b00100110 18
#30
b00100111 18
#31
b00101000 18
#32
b00101001 18
#33
b00101010 18
#34
b00101011 18
#35
b00101100 18
#36
b00101101 18
#37
b00101110 18
#38
b00101111 18
#39
b00110000 18
#40
b00110001 18
#41
b00110010 18
#42
b00110011 18
#43
b00110100 18
#44
b00110101 18
#45
b00110110 18
#46
b00110111 18
#47
b00111000 18
#48
b00111001 18
#49
b00111010 18
#50
b00111011 18
#51
b00111100 18
#52
b00111101 18
#53
b00111110 18
#54
b00111111 18
#55
b01000000 18
#56
b01000001 18
#57
b01000010 18
#58
b01000011 18
#59
b01000100 18
#60
b01000101 18
#61
b01000110 18
#62
b01000111 18
#63
b01001000 18
#64
b01001001 18
#65
b01001010 18
#66
b01001011 18
#67
b01001100 18
#68
b01001101 18
#69
b01001110 18
#70
b01001111 18
#71
b01010000 18
#72
b01010001 18
#73
b01010010 18
#74
b01010011 18
#75
b01010100 18
#76
b01010101 18
#77
b01010110 18
#78
b110 17
b00000000 18
#79
b00000001 18
#80
b00000010 18
#81
b00000011 18
#82
b00000100 18
#83
b00000101 18
#84
b00000110 18
#85
b00000111 18
#86
b00001000 18
#87
b00001001 18
#88
b00001010 18
#89
b00001011 18
#90
b00001100 18
#91
b00001101 18
#92
b00001110 18
#93
b00001111 18
#94
b00010000 18
#95
b00010001 18
#96
b00010010 18
#97
b00010011 18
#98
b00010100 18
#99
b00010101 18
#100
b00010110 18
#101
b00010111 18
#102
b00011000 18
#103
b00011001 18
#104
b00011010 18
#105
b00011011 18
#106
b00011100 18
#107
b00011101 18
#108
b00011110 18
#109
b00011111 18
#110
b00100000 18
#111
b00100001 18
#112
b00100010 18
#113
b00100011 18
#114
b00100100 18
#115
b00100101 18
#116
b00100110 18
#117
b00100111 18
#118
b00101000 18
#119
b00101001 18
#120
b00101010 18
#121
b00101011 18
#122
b00101100 18
#123
b00101101 18
#124
b00101110 18
#125
b00101111 18
#126
b00110000 18
#127
b00110001 18
#128
b00110010 18
#129
b00110011 18
#130
b00110100 18
#131
b00110101 18
#132
b00110110 18
#133
b00110111 18
#134
b00111000 18
#135
b00111001 18
#136
b00111010 18
#137
b00111011 18
#138
b00111100 18
#139
b00111101 18
#140
b00111110 18
#141
b00111111 18
#142
b01000000 18
#143
b01000001 18
#144
b01000010 18
#145
b01000011 18
#146
b01000100 18
#147
b01000101 18
#148
b01000110 18
#149
b01000111 18
#150
b01001000 18
#151
b01001001 18
#152
b01001010 18
#153
b01001011 18
#154
b01001100 18
#155
b01001101 18
#156
b01001110 18
#157
b01001111 18
#158
b01010000 18
#159
b01010001 18
#160
b01010010 18
#161
b01010011 18
#162
b01010100 18
#163
b01010101 18
#164
b01010110 18
#165
b111 17
b00000000 18
#166
b00000001 18
#167
b00000010 18
#168
b00000011 18
#169
b00000100 18
#170
b00000101 18
#171
b00000110 18
#172
b00000111 18
#173
b00001000 18
#174
b00001001 18
#175
b00001010 18
#176
b00001011 18
#177
b00001100 18
#178
b00001101 18
#179
b00001110 18
#180
b00001111 18
#181
b00010000 18
#182
b00010001 18
#183
b00010010 18
#184
b00010011 18
#185
b00010100 18
#186
b00010101 18
#187
b00010110 18
#188
b00010111 18
#189
b00011000 18
#190
b00011001 18
#191
b00011010 18
#192
b00011011 18
#193
b00011100 18
#194
b00011101 18
#195
b00011110 18
#196
b00011111 18
#197
b00100000 18
#198
b00100001 18
#199
b00100010 18
#200
b00100011 18
#201
b00100100 18
#202
b00100101 18
#203
b00100110 18
#204
b00100111 18
#205
b00101000 18
#206
b00101001 18
#207
b00101010 18
#208
b00101011 18
#209
b00101100 18
#210
b00101101 18
#211
b00101110 18
#212
b00101111 18
#213
b00110000 18
#214
b00110001 18
#215
b00110010 18
#216
b00110011 18
#217
b00110100 18
#218
b00110101 18
#219
b00110110 18
#220
b00110111 18
#221
b00111000 18
#222
b00111001 18
#223
b00111010 18
#224
b00111011 18
#225
b00111100 18
#226
b00111101 18
#227
b00111110 18
#228
b00111111 18
#229
b01000000 18
#230
b01000001 18
#231
b01000010 18
#232
b01000011 18
#233
b01000100 18
#234
b01000101 18
#235
b01000110 18
#236
b01000111 18
#237
b01001000 18
#238
b01001001 18
#239
b01001010 18
#240
b01001011 18
#241
b01001100 18
#242
b01001101 18
#243
b01001110 18
#244
b01001111 18
#245
b01010000 18
#246
b01010001 18
#247
b01010010 18
#248
b01010011 18
#249
b01010100 18
#250
b01010101 18
#251
b01010110 18
#252
b000 17
b00000000 18
b011 1d
#253
b00000001 18
#254
b00000010 18
#255
b00000011 18
#256
b00000100 18
#257
b00000101 18
#258
b00000110 18
#259
b00000111 18
#260
b00001000 18
#261
b00001001 18
#262
b00001010 18
#263
b00001011 18
#264
b00001100 18
#265
b00001101 18
#266
b00001110 18
#267
b00001111 18
#268
b00010000 18
#269
b00010001 18
#270
b00010010 18
#271
b00010011 18
#272
b00010100 18
#273
b00010101 18
#274
b00010110 18
#275
b00010111 18
#276
b00011000 18
#277
b00011001 18
#278
b00011010 18
#279
b00011011 18
#280
b00011100 18
#281
b00011101 18
#282
b00011110 18
#283
b00011111 18
#284
b00100000 18
#285
b00100001 18
#286
b00100010 18
#287
b00100011 18
#288
b00100100 18
#289
b00100101 18
#290
b00100110 18
#291
b00100111 18
#292
b00101000 18
#293
b00101001 18
#294
b00101010 18
#295
b00101011 18
#296
b00101100 18
#297
b00101101 18
#298
b00101110 18
#299
b00101111 18
#300
b00110000 18
#301
b00110001 18
#302
b00110010 18
#303
b00110011 18
#304
b00110100 18
#305
b00110101 18
#306
b00110110 18
#307
b00110111 18
#308
b00111000 18
#309
b00111001 18
#310
b00111010 18
#311
b00111011 18
#312
b00111100 18
#313
b00111101 18
#314
b00111110 18
#315
b00111111 18
#316
b01000000 18
#317
b01000001 18
#318
b01000010 18
#319
b01000011 18
#320
b01000100 18
#321
b01000101 18
#322
b01000110 18
#323
b01000111 18
#324
b01001000 18
#325
b01001001 18
#326
b01001010 18
#327
b01001011 18
#328
b01001100 18
#329
b01001101 18
#330
b01001110 18
#331
b01001111 18
#332
b01010000 18
#333
b01010001 18
#334
b01010010 18
#335
b01010011 18
#336
b01010100 18
#337
b01010101 18
#338
b01010110 18
#339
11
14
116
b00000000 18
11c
b100 1d
#340
01
04
15
b001 a
1b
1f
016
01c
b000 1d
#341
07
b00000001 9
012
b001 1d
#342
b00000010 9
b00000001 18
#343
b00000011 9
b00000010 18
#344
b00000100 9
b00000011 18
#345
b00000101 9
b00000100 18
#346
b00000110 9
b00000101 18
#347
b00000111 9
b00000110 18
#348
b00001000 9
b00000111 18
#349
b00001001 9
b00001000 18
#350
b00001010 9
b00001001 18
#351
b00001011 9
b00001010 18
#352
b00001100 9
b00001011 18
#353
b00001101 9
b00001100 18
#354
b00001110 9
b00001101 18
#355
b00001111 9
b00001110 18
#356
b00010000 9
b00001111 18
#357
b00010001 9
b00010000 18
#358
b00010010 9
b00010001 18
#359
b00010011 9
b00010010 18
#360
b00010100 9
b00010011 18
#361
b00010101 9
b00010100 18
#362
b00010110 9
b00010101 18
#363
b00010111 9
b00010110 18
#364
b00011000 9
b00010111 18
#365
b00011001 9
b00011000 18
#366
b00011010 9
b00011001 18
#367
b00011011 9
b00011010 18
#368
b00011100 9
b00011011 18
#369
b00011101 9
b00011100 18
#370
b00011110 9
b00011101 18
#371
b00011111 9
b00011110 18
#372
b00100000 9
b00011111 18
#373
b00100001 9
b00100000 18
#374
b00100010 9
b00100001 18
#375
b00100011 9
b00100010 18
#376
b00100100 9
b00100011 18
#377
b00100101 9
b00100100 18
#378
b00100110 9
b00100101 18
#379
b00100111 9
b00100110 18
#380
b00101000 9
b00100111 18
#381
b00101001 9
b00101000 18
#382
b00101010 9
b00101001 18
#383
b00101011 9
b00101010 18
#384
b00101100 9
b00101011 18
#385
b00101101 9
b00000000 18
b010 1d
#386
b00101110 9
b00000001 18
#387
b00101111 9
b00000010 18
#388
b00110000 9
b00000011 18
#389
b00110001 9
b00000100 18
#390
b00110010 9
b00000101 18
#391
b00110011 9
b00000110 18
#392
b00110100 9
b00000111 18
#393
b00110101 9
b00001000 18
#394
b00110110 9
b00001001 18
#395
b00110111 9
b00001010 18
#396
b00111000 9
b00001011 18
#397
b00111001 9
b00001100 18
#398
b00111010 9
b00001101 18
#399
b00111011 9
b00001110 18
#400
b00111100 9
b00001111 18
#401
b00111101 9
b00010000 18
#402
b00111110 9
b00010001 18
#403
b00111111 9
b00010010 18
#404
b01000000 9
b00010011 18
#405
b01000001 9
b00010100 18
#406
b01000010 9
b00010101 18
#407
b01000011 9
b00010110 18
#408
b01000100 9
b00010111 18
#409
b01000101 9
b00011000 18
#410
b01000110 9
b00011001 18
#411
b01000111 9
b00011010 18
#412
b01001000 9
b00011011 18
#413
b01001001 9
b00011100 18
#414
b01001010 9
b00011101 18
#415
b01001011 9
b00011110 18
#416
b01001100 9
b00011111 18
#417
b01001101 9
b00100000 18
#418
b01001110 9
b00100001 18
#419
b01001111 9
b00100010 18
#420
b01010000 9
b00100011 18
#421
b01010001 9
b00100100 18
#422
b01010010 9
b00100101 18
#423
b01010011 9
b00100110 18
#424
b01010100 9
b00100111 18
#425
b01010101 9
b00101000 18
#426
b01010110 9
b00101001 18
#427
b00000000 9
b010 a
b00101010 18
#428
b00000001 9
b00101011 18
#429
b00000010 9
b00101100 18
#430
b00000011 9
b00101101 18
#431
b00000100 9
b00101110 18
#432
b00000101 9
b00101111 18
#433
b00000110 9
b00110000 18
#434
b00000111 9
b00110001 18
#435
b00001000 9
b00110010 18
#436
b00001001 9
b00110011 18
#437
b00001010 9
b00110100 18
#438
b00001011 9
b00110101 18
#439
b00001100 9
b00110110 18
#440
b00001101 9
b00110111 18
#441
b00001110 9
b00111000 18
#442
b00001111 9
b00111001 18
#443
b00010000 9
b00111010 18
#444
b00010001 9
b00111011 18
#445
b00010010 9
b00111100 18
#446
b00010011 9
b00111101 18
#447
b00010100 9
b00111110 18
#448
b00010101 9
b00111111 18
#449
b00010110 9
b01000000 18
#450
b00010111 9
b01000001 18
#451
b00011000 9
b01000010 18
#452
b00011001 9
b01000011 18
#453
b00011010 9
b01000100 18
#454
b00011011 9
b01000101 18
#455
b00011100 9
b01000110 18
#456
b00011101 9
b01000111 18
#457
b00011110 9
b01001000 18
#458
b00011111 9
b01001001 18
#459
b00100000 9
b01001010 18
#460
b00100001 9
b01001011 18
#461
b00100010 9
b01001100 18
#462
b00100011 9
b01001101 18
#463
b00100100 9
b01001110 18
#464
b00100101 9
b01001111 18
#465
b00100110 9
b01010000 18
#466
b00100111 9
b01010001 18
#467
b00101000 9
b01010010 18
#468
b00101001 9
b01010011 18
#469
b00101010 9
b01010100 18
#470
b00101011 9
b01010101 18
#471
b00101100 9
b01010110 18
#472
b00101101 9
b001 17
b00000000 18
#473
b00101110 9
b00000001 18
#474
b00101111 9
b00000010 18
#475
b00110000 9
b00000011 18
#476
b00110001 9
b00000100 18
#477
b00110010 9
b00000101 18
#478
b00110011 9
b00000110 18
#479
b00110100 9
b00000111 18
#480
b00110101 9
b00001000 18
#481
b00110110 9
b00001001 18
#482
b00110111 9
b00001010 18
#483
b00111000 9
b00001011 18
#484
b00111001 9
b00001100 18
#485
b00111010 9
b00001101 18
#486
b00111011 9
b00001110 18
#487
b00111100 9
b00001111 18
#488
b00111101 9
b00010000 18
#489
b00111110 9
b00010001 18
#490
b00111111 9
b00010010 18
#491
b01000000 9
b00010011 18
#492
b01000001 9
b00010100 18
#493
b01000010 9
b00010101 18
#494
b01000011 9
b00010110 18
#495
b01000100 9
b00010111 18
#496
b01000101 9
b00011000 18
#497
b01000110 9
b00011001 18
#498
b01000111 9
b00011010 18
#499
b01001000 9
b00011011 18
#500
b01001001 9
b00011100 18
#501
b01001010 9
b00011101 18
#502
b01001011 9
b00011110 18
#503
b01001100 9
b00011111 18
#504
b01001101 9
b00100000 18
#505
b01001110 9
b00100001 18
#506
b01001111 9
b00100010 18
#507
b01010000 9
b00100011 18
#508
b01010001 9
b00100100 18
#509
b01010010 9
b00100101 18
#510
b01010011 9
b00100110 18
#511
b01010100 9
b00100111 18
#512
b01010101 9
b00101000 18
#513
b01010110 9
b00101001 18
#514
b001 8
b00000000 9
b00101010 18
#515
b00000001 9
b00101011 18
#516
b00000010 9
b00101100 18
#517
b00000011 9
b00101101 18
#518
b00000100 9
b00101110 18
#519
b00000101 9
b00101111 18
#520
b00000110 9
b00110000 18
#521
b00000111 9
b00110001 18
#522
b00001000 9
b00110010 18
#523
b00001001 9
b00110011 18
#524
b00001010 9
b00110100 18
#525
b00001011 9
b00110101 18
#526
b00001100 9
b00110110 18
#527
b00001101 9
b00110111 18
#528
b00001110 9
b00111000 18
#529
b00001111 9
b00111001 18
#530
b00010000 9
b00111010 18
#531
b00010001 9
b00111011 18
#532
b00010010 9
b00111100 18
#533
b00010011 9
b00111101 18
#534
b00010100 9
b00111110 18
#535
b00010101 9
b00111111 18
#536
b00010110 9
b01000000 18
#537
b00010111 9
b01000001 18
#538
b00011000 9
b01000010 18
#539
b00011001 9
b01000011 18
#540
b00011010 9
b01000100 18
#541
b00011011 9
b01000101 18
#542
b00011100 9
b01000110 18
#543
b00011101 9
b01000111 18
#544
b00011110 9
b01001000 18
#545
b00011111 9
b01001001 18
#546
b00100000 9
b01001010 18
#547
b00100001 9
b01001011 18
#548
b00100010 9
b01001100 18
#549
b00100011 9
b01001101 18
#550
b00100100 9
b01001110 18
#551
b00100101 9
b01001111 18
#552
b00100110 9
b01010000 18
#553
b00100111 9
b01010001 18
#554
b00101000 9
b01010010 18
#555
b00101001 9
b01010011 18
#556
b00101010 9
b01010100 18
#557
b00101011 9
b01010101 18
#558
b00101100 9
b01010110 18
#559
b00101101 9
b010 17
b00000000 18
#560
b00101110 9
b00000001 18
#561
b00101111 9
b00000010 18
#562
b00110000 9
b00000011 18
#563
b00110001 9
b00000100 18
#564
b00110010 9
b00000101 18
#565
b00110011 9
b00000110 18
#566
b00110100 9
b00000111 18
#567
b00110101 9
b00001000 18
#568
b00110110 9
b00001001 18
#569
b00110111 9
b00001010 18
#570
b00111000 9
b00001011 18
#571
b00111001 9
b00001100 18
#572
b00111010 9
b00001101 18
#573
b00111011 9
b00001110 18
#574
b00111100 9
b00001111 18
#575
b00111101 9
b00010000 18
#576
b00111110 9
b00010001 18
#577
b00111111 9
b00010010 18
#578
b01000000 9
b00010011 18
#579
b01000001 9
b00010100 18
#580
b01000010 9
b00010101 18
#581
b01000011 9
b00010110 18
#582
b01000100 9
b00010111 18
#583
b01000101 9
b00011000 18
#584
b01000110 9
b00011001 18
#585
b01000111 9
b00011010 18
#586
b01001000 9
b00011011 18
#587
b01001001 9
b00011100 18
#588
b01001010 9
b00011101 18
#589
b01001011 9
b00011110 18
#590
b01001100 9
b00011111 18
#591
b01001101 9
b00100000 18
#592
b01001110 9
b00100001 18
#593
b01001111 9
b00100010 18
#594
b01010000 9
b00100011 18
#595
b01010001 9
b00100100 18
#596
b01010010 9
b00100101 18
#597
b01010011 9
b00100110 18
#598
b01010100 9
b00100111 18
#599
b01010101 9
b00101000 18
#600
b01010110 9
b00101001 18
#601
b010 8
b00000000 9
b00101010 18
#602
b00000001 9
b00101011 18
#603
b00000010 9
b00101100 18
#604
b00000011 9
b00101101 18
#605
b00000100 9
b00101110 18
#606
b00000101 9
b00101111 18
#607
b00000110 9
b00110000 18
#608
b00000111 9
b00110001 18
#609
b00001000 9
b00110010 18
#610
b00001001 9
b00110011 18
#611
b00001010 9
b00110100 18
#612
b00001011 9
b00110101 18
#613
b00001100 9
b00110110 18
#614
b00001101 9
b00110111 18
#615
b00001110 9
b00111000 18
#616
b00001111 9
b00111001 18
#617
b00010000 9
b00111010 18
#618
b00010001 9
b00111011 18
#619
b00010010 9
b00111100 18
#620
b00010011 9
b00111101 18
#621
b00010100 9
b00111110 18
#622
b00010101 9
b00111111 18
#623
b00010110 9
b01000000 18
#624
b00010111 9
b01000001 18
#625
b00011000 9
b01000010 18
#626
b00011001 9
b01000011 18
#627
b00011010 9
b01000100 18
#628
b00011011 9
b01000101 18
#629
b00011100 9
b01000110 18
#630
b00011101 9
b01000111 18
#631
b00011110 9
b01001000 18
#632
b00011111 9
b01001001 18
#633
b00100000 9
b01001010 18
#634
b00100001 9
b01001011 18
#635
b00100010 9
b01001100 18
#636
b00100011 9
b01001101 18
#637
b00100100 9
b01001110 18
#638
b00100101 9
b01001111 18
#639
b00100110 9
b01010000 18
#640
b00100111 9
b01010001 18
#641
b00101000 9
b01010010 18
#642
b00101001 9
b01010011 18
#643
b00101010 9
b01010100 18
#644
b00101011 9
b01010101 18
#645
b00101100 9
b01010110 18
#646
b00101101 9
b011 17
b00000000 18
#647
b00101110 9
b00000001 18
#648
b00101111 9
b00000010 18
#649
b00110000 9
b00000011 18
#650
b00110001 9
b00000100 18
#651
b00110010 9
b00000101 18
#652
b00110011 9
b00000110 18
#653
b00110100 9
b00000111 18
#654
b00110101 9
b00001000 18
#655
b00110110 9
b00001001 18
#656
b00110111 9
b00001010 18
#657
b00111000 9
b00001011 18
#658
b00111001 9
b00001100 18
#659
b00111010 9
b00001101 18
#660
b00111011 9
b00001110 18
#661
b00111100 9
b00001111 18
#662
b00111101 9
b00010000 18
#663
b00111110 9
b00010001 18
#664
b00111111 9
b00010010 18
#665
b01000000 9
b00010011 18
#666
b01000001 9
b00010100 18
#667
b01000010 9
b00010101 18
#668
b01000011 9
b00010110 18
#669
b01000100 9
b00010111 18
#670
b01000101 9
b00011000 18
#671
b01000110 9
b00011001 18
#672
b01000111 9
b00011010 18
#673
b01001000 9
b00011011 18
#674
b01001001 9
b00011100 18
#675
b01001010 9
b00011101 18
#676
b01001011 9
b00011110 18
#677
b01001100 9
b00011111 18
#678
b01001101 9
b00100000 18
#679
b01001110 9
b00100001 18
#680
b01001111 9
b00100010 18
#681
b01010000 9
b00100011 18
#682
b01010001 9
b00100100 18
#683
b01010010 9
b00100101 18
#684
b01010011 9
b00100110 18
#685
b01010100 9
b00100111 18
#686
b01010101 9
b00101000 18
#687
b01010110 9
b00101001 18
#688
b011 8
b00000000 9
b00101010 18
#689
b00000001 9
b00101011 18
#690
b00000010 9
b00101100 18
#691
b00000011 9
b00101101 18
#692
b00000100 9
b00101110 18
#693
b00000101 9
b00101111 18
#694
b00000110 9
b00110000 18
#695
b00000111 9
b00110001 18
#696
b00001000 9
b00110010 18
#697
b00001001 9
b00110011 18
#698
b00001010 9
b00110100 18
#699
b00001011 9
b00110101 18
#700
b00001100 9
b00110110 18
#701
b00001101 9
b00110111 18
#702
b00001110 9
b00111000 18
#703
b00001111 9
b00111001 18
#704
b00010000 9
b00111010 18
#705
b00010001 9
b00111011 18
#706
b00010010 9
b00111100 18
#707
b00010011 9
b00111101 18
#708
b00010100 9
b00111110 18
#709
b00010101 9
b00111111 18
#710
b00010110 9
b01000000 18
#711
b00010111 9
b01000001 18
#712
b00011000 9
b01000010 18
#713
b00011001 9
b01000011 18
#714
b00011010 9
b01000100 18
#715
b00011011 9
b01000101 18
#716
b00011100 9
b01000110 18
#717
b00011101 9
b01000111 18
#718
b00011110 9
b01001000 18
#719
b00011111 9
b01001001 18
#720
b00100000 9
b01001010 18
#721
b00100001 9
b01001011 18
#722
b00100010 9
b01001100 18
#723
b00100011 9
b01001101 18
#724
b00100100 9
b01001110 18
#725
b00100101 9
b01001111 18
#726
b00100110 9
b01010000 18
#727
b00100111 9
b01010001 18
#728
b00101000 9
b01010010 18
#729
b00101001 9
b01010011 18
#730
b00101010 9
b01010100 18
#731
b00101011 9
b01010101 18
#732
b00101100 9
b01010110 18
#733
b00101101 9
b100 17
b00000000 18
#734
b00101110 9
b00000001 18
#735
b00101111 9
b00000010 18
#736
b00110000 9
b00000011 18
#737
b00110001 9
b00000100 18
#738
b00110010 9
b00000101 18
#739
b00110011 9
b00000110 18
#740
b00110100 9
b00000111 18
#741
b00110101 9
b00001000 18
#742
b00110110 9
b00001001 18
#743
b00110111 9
b00001010 18
#744
b00111000 9
b00001011 18
#745
b00111001 9
b00001100 18
#746
b00111010 9
b00001101 18
#747
b00111011 9
b00001110 18
#748
b00111100 9
b00001111 18
#749
b00111101 9
b00010000 18
#750
b00111110 9
b00010001 18
#751
b00111111 9
b00010010 18
#752
b01000000 9
b00010011 18
#753
b01000001 9
b00010100 18
#754
b01000010 9
b00010101 18
#755
b01000011 9
b00010110 18
#756
b01000100 9
b00010111 18
#757
b01000101 9
b00011000 18
#758
b01000110 9
b00011001 18
#759
b01000111 9
b00011010 18
#760
b01001000 9
b00011011 18
#761
b01001001 9
b00011100 18
#762
b01001010 9
b00011101 18
#763
b01001011 9
b00011110 18
#764
b01001100 9
b00011111 18
#765
b01001101 9
b00100000 18
#766
b01001110 9
b00100001 18
#767
b01001111 9
b00100010 18
#768
b01010000 9
b00100011 18
#769
b01010001 9
b00100100 18
#770
b01010010 9
b00100101 18
#771
b01010011 9
b00100110 18
#772
b01010100 9
b00100111 18
#773
b01010101 9
b00101000 18
#774
b01010110 9
b00101001 18
#775
b100 8
b00000000 9
b00101010 18
#776
b00000001 9
b00101011 18
#777
b00000010 9
b00101100 18
#778
b00000011 9
b00101101 18
#779
b00000100 9
b00101110 18
#780
b00000101 9
b00101111 18
#781
b00000110 9
b00110000 18
#782
b00000111 9
b00110001 18
#783
b00001000 9
b00110010 18
#784
b00001001 9
b00110011 18
#785
b00001010 9
b00110100 18
#786
b00001011 9
b00110101 18
#787
b00001100 9
b00110110 18
#788
b00001101 9
b00110111 18
#789
b00001110 9
b00111000 18
#790
b00001111 9
b00111001 18
#791
b00010000 9
b00111010 18
#792
b00010001 9
b00111011 18
#793
b00010010 9
b00111100 18
#794
b00010011 9
b00111101 18
#795
b00010100 9
b00111110 18
#796
b00010101 9
b00111111 18
#797
b00010110 9
b01000000 18
#798
b00010111 9
b01000001 18
#799
b00011000 9
b01000010 18
#800
b00011001 9
b01000011 18
#801
b00011010 9
b01000100 18
#802
b00011011 9
b01000101 18
#803
b00011100 9
b01000110 18
#804
b00011101 9
b01000111 18
#805
b00011110 9
b01001000 18
#806
b00011111 9
b01001001 18
#807
b00100000 9
b01001010 18
#808
b00100001 9
b01001011 18
#809
b00100010 9
b01001100 18
#810
b00100011 9
b01001101 18
#811
b00100100 9
b01001110 18
#812
b00100101 9
b01001111 18
#813
b00100110 9
b01010000 18
#814
b00100111 9
b01010001 18
#815
b00101000 9
b01010010 18
#816
b00101001 9
b01010011 18
#817
b00101010 9
b01010100 18
#818
b00101011 9
b01010101 18
#819
b00101100 9
b01010110 18
#820
b00101101 9
b101 17
b00000000 18
#821
b00101110 9
b00000001 18
#822
b00101111 9
b00000010 18
#823
b00110000 9
b00000011 18
#824
b00110001 9
b00000100 18
#825
b00110010 9
b00000101 18
#826
b00110011 9
b00000110 18
#827
b00110100 9
b00000111 18
#828
b00110101 9
b00001000 18
#829
b00110110 9
b00001001 18
#830
b00110111 9
b00001010 18
#831
b00111000 9
b00001011 18
#832
b00111001 9
b00001100 18
#833
b00111010 9
b00001101 18
#834
b00111011 9
b00001110 18
#835
b00111100 9
b00001111 18
#836
b00111101 9
b00010000 18
#837
b00111110 9
b00010001 18
#838
b00111111 9
b00010010 18
#839
b01000000 9
b00010011 18
#840
b01000001 9
b00010100 18
#841
b01000010 9
b00010101 18
#842
b01000011 9
b00010110 18
#843
b01000100 9
b00010111 18
#844
b01000101 9
b00011000 18
#845
b01000110 9
b00011001 18
#846
b01000111 9
b00011010 18
#847
b01001000 9
b00011011 18
#848
b01001001 9
b00011100 18
#849
b01001010 9
b00011101 18
#850
b01001011 9
b00011110 18
#851
b01001100 9
b00011111 18
#852
b01001101 9
b00100000 18
#853
b01001110 9
b00100001 18
#854
b01001111 9
b00100010 18
#855
b01010000 9
b00100011 18
#856
b01010001 9
b00100100 18
#857
b01010010 9
b00100101 18
#858
b01010011 9
b00100110 18
#859
b01010100 9
b00100111 18
#860
b01010101 9
b00101000 18
#861
b01010110 9
b00101001 18
#862
b101 8
b00000000 9
b00101010 18
#863
b00000001 9
b00101011 18
#864
b00000010 9
b00101100 18
#865
b00000011 9
b00101101 18
#866
b00000100 9
b00101110 18
#867
b00000101 9
b00101111 18
#868
b00000110 9
b00110000 18
#869
b00000111 9
b00110001 18
#870
b00001000 9
b00110010 18
#871
b00001001 9
b00110011 18
#872
b00001010 9
b00110100 18
#873
b00001011 9
b00110101 18
#874
b00001100 9
b00110110 18
#875
b00001101 9
b00110111 18
#876
b00001110 9
b00111000 18
#877
b00001111 9
b00111001 18
#878
b00010000 9
b00111010 18
#879
b00010001 9
b00111011 18
#880
b00010010 9
b00111100 18
#881
b00010011 9
b00111101 18
#882
b00010100 9
b00111110 18
#883
b00010101 9
b00111111 18
#884
b00010110 9
b01000000 18
#885
b00010111 9
b01000001 18
#886
b00011000 9
b01000010 18
#887
b00011001 9
b01000011 18
#888
b00011010 9
b01000100 18
#889
b00011011 9
b01000101 18
#890
b00011100 9
b01000110 18
#891
b00011101 9
b01000111 18
#892
b00011110 9
b01001000 18
#893
b00011111 9
b01001001 18
#894
b00100000 9
b01001010 18
#895
b00100001 9
b01001011 18
#896
b00100010 9
b01001100 18
#897
b00100011 9
b01001101 18
#898
b00100100 9
b01001110 18
#899
b00100101 9
b01001111 18
#900
b00100110 9
b01010000 18
#901
b00100111 9
b01010001 18
#902
b00101000 9
b01010010 18
#903
b00101001 9
b01010011 18
#904
b00101010 9
b01010100 18
#905
b00101011 9
b01010101 18
#906
b00101100 9
b01010110 18
#907
b00101101 9
b110 17
b00000000 18
#908
b00101110 9
b00000001 18
#909
b00101111 9
b00000010 18
#910
b00110000 9
b00000011 18
#911
b00110001 9
b00000100 18
#912
b00110010 9
b00000101 18
#913
b00110011 9
b00000110 18
#914
b00110100 9
b00000111 18
#915
b00110101 9
b00001000 18
#916
b00110110 9
b00001001 18
#917
b00110111 9
b00001010 18
#918
b00111000 9
b00001011 18
#919
b00111001 9
b00001100 18
#920
b00111010 9
b00001101 18
#921
b00111011 9
b00001110 18
#922
b00111100 9
b00001111 18
#923
b00111101 9
b00010000 18
#924
b00111110 9
b00010001 18
#925
b00111111 9
b00010010 18
#926
b01000000 9
b00010011 18
#927
b01000001 9
b00010100 18
#928
b01000010 9
b00010101 18
#929
b01000011 9
b00010110 18
#930
b01000100 9
b00010111 18
#931
b01000101 9
b00011000 18
#932
b01000110 9
b00011001 18
#933
b01000111 9
b00011010 18
#934
b01001000 9
b00011011 18
#935
b01001001 9
b00011100 18
#936
b01001010 9
b00011101 18
#937
b01001011 9
b00011110 18
#938
b01001100 9
b00011111 18
#939
b01001101 9
b00100000 18
#940
b01001110 9
b00100001 18
#941
b01001111 9
b00100010 18
#942
b01010000 9
b00100011 18
#943
b01010001 9
b00100100 18
#944
b01010010 9
b00100101 18
#945
b01010011 9
b00100110 18
#946
b01010100 9
b00100111 18
#947
b01010101 9
b00101000 18
#948
b01010110 9
b00101001 18
#949
b110 8
b00000000 9
b00101010 18
#950
b00000001 9
b00101011 18
#951
b00000010 9
b00101100 18
#952
b00000011 9
b00101101 18
#953
b00000100 9
b00101110 18
#954
b00000101 9
b00101111 18
